#Saved by Virtuxplorer
RALLY	37.62195540615098	-122.394065856206	20	0	0	0
RALLY	37.624164810840995	-122.38638400958735	20	0	0	0
RALLY	37.618114284769185	-122.39333629535395	20	0	0	0
RALLY	37.623926878106396	-122.372994422185	20	0	0	0
RALLY	37.615666741090045	-122.3785734156263	20	0	0	0
RALLY	37.6182842500885	-122.37445354257943	20	0	0	0
